
*** Running vivado
    with args -log axi4lite_multi_slave_top.vds -m64 -product Vivado -mode batch -messageDb vivado.pb -notrace -source axi4lite_multi_slave_top.tcl


****** Vivado v2016.3 (64-bit)
  **** SW Build 1682563 on Mon Oct 10 19:07:26 MDT 2016
  **** IP Build 1681267 on Mon Oct 10 21:28:31 MDT 2016
    ** Copyright 1986-2016 Xilinx, Inc. All Rights Reserved.

source axi4lite_multi_slave_top.tcl -notrace
Command: synth_design -top axi4lite_multi_slave_top -part xcku040-ffva1156-2-e
Starting synth_design
Attempting to get a license for feature 'Synthesis' and/or device 'xcku040'
INFO: [Common 17-349] Got license for feature 'Synthesis' and/or device 'xcku040'
INFO: Launching helper process for spawning children vivado processes
INFO: Helper process launched with PID 150876 
---------------------------------------------------------------------------------
Starting RTL Elaboration : Time (s): cpu = 00:00:08 ; elapsed = 00:00:09 . Memory (MB): peak = 1248.633 ; gain = 243.504 ; free physical = 35973 ; free virtual = 103623
---------------------------------------------------------------------------------
INFO: [Synth 8-638] synthesizing module 'axi4lite_multi_slave_top' [/local/users/joc92375/local_svn_working_copy/libraries/lib_stfc/embedded_test/src/vhdl/axi4lite_multi_slave_top.vhd:33]
	Parameter g_fpga_vendor bound to: xilinx - type: string 
	Parameter g_fpga_family bound to: all - type: string 
	Parameter g_fifo_implementation bound to: auto - type: string 
INFO: [Synth 8-638] synthesizing module 'axi4lite_multi_slave_ic' [/u/joc92375/DUT/axi4lite_multi_slaves/embedded_test.srcs/sources_1/new/axi4lite_multi_slave_ic.vhd:26]
WARNING: [Synth 8-5858] RAM axi4lite_mosi_arr_reg from Abstract Data Type (record/struct) for this pattern/configuration is not supported. This will most likely be implemented in registers
WARNING: [Synth 8-3936] Found unconnected internal register 'addr_sel_reg' and it is trimmed from '32' to '7' bits. [/u/joc92375/DUT/axi4lite_multi_slaves/embedded_test.srcs/sources_1/new/axi4lite_multi_slave_ic.vhd:37]
INFO: [Synth 8-256] done synthesizing module 'axi4lite_multi_slave_ic' (1#1) [/u/joc92375/DUT/axi4lite_multi_slaves/embedded_test.srcs/sources_1/new/axi4lite_multi_slave_ic.vhd:26]
INFO: [Synth 8-638] synthesizing module 'axi4lite_multi_slave_reg_bank0' [/u/joc92375/DUT/axi4lite_multi_slaves/embedded_test.srcs/sources_1/new/axi4lite_multi_slave_reg_bank0.vhd:25]
INFO: [Synth 8-638] synthesizing module 'axi4lite_slave_logic' [/u/joc92375/DUT/axi4lite_multi_slaves/embedded_test.srcs/sources_1/new/axi4lite_slave_logic.vhd:66]
INFO: [Synth 8-256] done synthesizing module 'axi4lite_slave_logic' (2#1) [/u/joc92375/DUT/axi4lite_multi_slaves/embedded_test.srcs/sources_1/new/axi4lite_slave_logic.vhd:66]
INFO: [Synth 8-638] synthesizing module 'axi4lite_multi_slave_reg_bank0_muxdemux' [/u/joc92375/DUT/axi4lite_multi_slaves/embedded_test.srcs/sources_1/new/axi4lite_slave_bank0_muxdemux.vhd:22]
INFO: [Synth 8-256] done synthesizing module 'axi4lite_multi_slave_reg_bank0_muxdemux' (3#1) [/u/joc92375/DUT/axi4lite_multi_slaves/embedded_test.srcs/sources_1/new/axi4lite_slave_bank0_muxdemux.vhd:22]
WARNING: [Synth 8-614] signal 'axi4lite_multi_slave_reg_bank0_int' is read in the process but is not in the sensitivity list [/u/joc92375/DUT/axi4lite_multi_slaves/embedded_test.srcs/sources_1/new/axi4lite_multi_slave_reg_bank0.vhd:71]
INFO: [Synth 8-256] done synthesizing module 'axi4lite_multi_slave_reg_bank0' (4#1) [/u/joc92375/DUT/axi4lite_multi_slaves/embedded_test.srcs/sources_1/new/axi4lite_multi_slave_reg_bank0.vhd:25]
INFO: [Synth 8-638] synthesizing module 'axi4lite_multi_slave_reg_bank1' [/u/joc92375/DUT/axi4lite_multi_slaves/embedded_test.srcs/sources_1/new/axi4lite_multi_slave_reg_bank1.vhd:25]
INFO: [Synth 8-638] synthesizing module 'axi4lite_multi_slave_reg_bank1_muxdemux' [/u/joc92375/DUT/axi4lite_multi_slaves/embedded_test.srcs/sources_1/new/axi4lite_multi_slave_reg_bank1_muxdemux.vhd:22]
INFO: [Synth 8-256] done synthesizing module 'axi4lite_multi_slave_reg_bank1_muxdemux' (5#1) [/u/joc92375/DUT/axi4lite_multi_slaves/embedded_test.srcs/sources_1/new/axi4lite_multi_slave_reg_bank1_muxdemux.vhd:22]
WARNING: [Synth 8-614] signal 'axi4lite_multi_slave_reg_bank1_int' is read in the process but is not in the sensitivity list [/u/joc92375/DUT/axi4lite_multi_slaves/embedded_test.srcs/sources_1/new/axi4lite_multi_slave_reg_bank1.vhd:71]
INFO: [Synth 8-256] done synthesizing module 'axi4lite_multi_slave_reg_bank1' (6#1) [/u/joc92375/DUT/axi4lite_multi_slaves/embedded_test.srcs/sources_1/new/axi4lite_multi_slave_reg_bank1.vhd:25]
INFO: [Synth 8-256] done synthesizing module 'axi4lite_multi_slave_top' (7#1) [/local/users/joc92375/local_svn_working_copy/libraries/lib_stfc/embedded_test/src/vhdl/axi4lite_multi_slave_top.vhd:33]
WARNING: [Synth 8-3331] design axi4lite_multi_slave_reg_bank1_muxdemux has unconnected port axi4lite_aclk
WARNING: [Synth 8-3331] design axi4lite_multi_slave_reg_bank1_muxdemux has unconnected port axi4lite_aresetn
WARNING: [Synth 8-3331] design axi4lite_slave_logic has unconnected port axi4lite_mosi[wstrb][3]
WARNING: [Synth 8-3331] design axi4lite_slave_logic has unconnected port axi4lite_mosi[wstrb][2]
WARNING: [Synth 8-3331] design axi4lite_slave_logic has unconnected port axi4lite_mosi[wstrb][1]
WARNING: [Synth 8-3331] design axi4lite_slave_logic has unconnected port axi4lite_mosi[wstrb][0]
WARNING: [Synth 8-3331] design axi4lite_multi_slave_reg_bank0_muxdemux has unconnected port axi4lite_aclk
WARNING: [Synth 8-3331] design axi4lite_multi_slave_reg_bank0_muxdemux has unconnected port axi4lite_aresetn
---------------------------------------------------------------------------------
Finished RTL Elaboration : Time (s): cpu = 00:00:08 ; elapsed = 00:00:10 . Memory (MB): peak = 1292.117 ; gain = 286.988 ; free physical = 35926 ; free virtual = 103575
---------------------------------------------------------------------------------

Report Check Netlist: 
+------+------------------+-------+---------+-------+------------------+
|      |Item              |Errors |Warnings |Status |Description       |
+------+------------------+-------+---------+-------+------------------+
|1     |multi_driven_nets |      0|        0|Passed |Multi driven nets |
+------+------------------+-------+---------+-------+------------------+
---------------------------------------------------------------------------------
Finished RTL Optimization Phase 1 : Time (s): cpu = 00:00:09 ; elapsed = 00:00:10 . Memory (MB): peak = 1292.117 ; gain = 286.988 ; free physical = 35925 ; free virtual = 103575
---------------------------------------------------------------------------------
INFO: [Device 21-403] Loading part xcku040-ffva1156-2-e
INFO: [Project 1-570] Preparing netlist for logic optimization

Processing XDC Constraints
Initializing timing engine
Completed Processing XDC Constraints

INFO: [Project 1-111] Unisim Transformation Summary:
No Unisim elements were transformed.

Constraint Validation Runtime : Time (s): cpu = 00:00:00.01 ; elapsed = 00:00:00.01 . Memory (MB): peak = 1766.414 ; gain = 0.000 ; free physical = 35616 ; free virtual = 103266
---------------------------------------------------------------------------------
Finished Constraint Validation : Time (s): cpu = 00:00:16 ; elapsed = 00:00:18 . Memory (MB): peak = 1766.414 ; gain = 761.285 ; free physical = 35614 ; free virtual = 103263
---------------------------------------------------------------------------------
---------------------------------------------------------------------------------
Start Loading Part and Timing Information
---------------------------------------------------------------------------------
Loading part: xcku040-ffva1156-2-e
---------------------------------------------------------------------------------
Finished Loading Part and Timing Information : Time (s): cpu = 00:00:16 ; elapsed = 00:00:18 . Memory (MB): peak = 1766.414 ; gain = 761.285 ; free physical = 35614 ; free virtual = 103263
---------------------------------------------------------------------------------
---------------------------------------------------------------------------------
Start Applying 'set_property' XDC Constraints
---------------------------------------------------------------------------------
---------------------------------------------------------------------------------
Finished applying 'set_property' XDC Constraints : Time (s): cpu = 00:00:16 ; elapsed = 00:00:18 . Memory (MB): peak = 1766.414 ; gain = 761.285 ; free physical = 35614 ; free virtual = 103263
---------------------------------------------------------------------------------
INFO: [Synth 8-4471] merging register 'axi4lite_miso_reg[bvalid]' into 'axi4lite_miso_reg[wready]' [/u/joc92375/DUT/axi4lite_multi_slaves/embedded_test.srcs/sources_1/new/axi4lite_slave_logic.vhd:80]
INFO: [Synth 8-4471] merging register 'axi4lite_miso_reg[arready]' into 'axi4lite_miso_reg[awready]' [/u/joc92375/DUT/axi4lite_multi_slaves/embedded_test.srcs/sources_1/new/axi4lite_slave_logic.vhd:80]
INFO: [Synth 8-802] inferred FSM for state register 'fsm_reg' in module 'axi4lite_slave_logic'
INFO: [Synth 8-5544] ROM "fsm" won't be mapped to Block RAM because address size (1) smaller than threshold (5)
---------------------------------------------------------------------------------------------------
                   State |                     New Encoding |                Previous Encoding 
---------------------------------------------------------------------------------------------------
                    idle |                              000 |                              000
                 reading |                              001 |                              001
               read_wait |                              010 |                              010
                 writing |                              011 |                              011
              write_wait |                              100 |                              100
---------------------------------------------------------------------------------------------------
INFO: [Synth 8-3354] encoded FSM with state register 'fsm_reg' using encoding 'sequential' in module 'axi4lite_slave_logic'
---------------------------------------------------------------------------------
Finished RTL Optimization Phase 2 : Time (s): cpu = 00:00:16 ; elapsed = 00:00:19 . Memory (MB): peak = 1766.414 ; gain = 761.285 ; free physical = 35598 ; free virtual = 103248
---------------------------------------------------------------------------------

Report RTL Partitions: 
+-+--------------+------------+----------+
| |RTL Partition |Replication |Instances |
+-+--------------+------------+----------+
+-+--------------+------------+----------+
---------------------------------------------------------------------------------
Start RTL Component Statistics 
---------------------------------------------------------------------------------
Detailed RTL Component Info : 
+---Registers : 
	               32 Bit    Registers := 12    
	                2 Bit    Registers := 2     
	                1 Bit    Registers := 10    
+---Muxes : 
	   2 Input     32 Bit        Muxes := 4     
	   5 Input     32 Bit        Muxes := 2     
	   2 Input      7 Bit        Muxes := 1     
	   2 Input      4 Bit        Muxes := 2     
	   6 Input      3 Bit        Muxes := 2     
	   5 Input      2 Bit        Muxes := 1     
	   2 Input      2 Bit        Muxes := 5     
	   4 Input      2 Bit        Muxes := 1     
	   2 Input      1 Bit        Muxes := 8     
	   4 Input      1 Bit        Muxes := 2     
	   5 Input      1 Bit        Muxes := 24    
---------------------------------------------------------------------------------
Finished RTL Component Statistics 
---------------------------------------------------------------------------------
---------------------------------------------------------------------------------
Start RTL Hierarchical Component Statistics 
---------------------------------------------------------------------------------
Hierarchical RTL Component report 
Module axi4lite_multi_slave_ic 
Detailed RTL Component Info : 
+---Registers : 
	                2 Bit    Registers := 2     
+---Muxes : 
	   2 Input     32 Bit        Muxes := 2     
	   2 Input      7 Bit        Muxes := 1     
	   2 Input      4 Bit        Muxes := 2     
	   5 Input      2 Bit        Muxes := 1     
	   2 Input      2 Bit        Muxes := 5     
	   4 Input      2 Bit        Muxes := 1     
	   2 Input      1 Bit        Muxes := 6     
	   4 Input      1 Bit        Muxes := 2     
Module axi4lite_slave_logic 
Detailed RTL Component Info : 
+---Registers : 
	               32 Bit    Registers := 2     
	                1 Bit    Registers := 5     
+---Muxes : 
	   5 Input     32 Bit        Muxes := 1     
	   2 Input     32 Bit        Muxes := 1     
	   6 Input      3 Bit        Muxes := 1     
	   2 Input      1 Bit        Muxes := 1     
	   5 Input      1 Bit        Muxes := 12    
Module axi4lite_multi_slave_reg_bank0 
Detailed RTL Component Info : 
+---Registers : 
	               32 Bit    Registers := 4     
Module axi4lite_multi_slave_reg_bank1 
Detailed RTL Component Info : 
+---Registers : 
	               32 Bit    Registers := 4     
---------------------------------------------------------------------------------
Finished RTL Hierarchical Component Statistics
---------------------------------------------------------------------------------
---------------------------------------------------------------------------------
Start Part Resource Summary
---------------------------------------------------------------------------------
Part Resources:
DSPs: 1920 (col length:120)
BRAMs: 1200 (col length: RAMB18 120 RAMB36 60)
---------------------------------------------------------------------------------
Finished Part Resource Summary
---------------------------------------------------------------------------------
---------------------------------------------------------------------------------
Start Cross Boundary and Area Optimization
---------------------------------------------------------------------------------
WARNING: [Synth 8-3936] Found unconnected internal register 'reg_block_inst_1/axi4lite_slave_logic_inst/ipb_mosi_int_reg[addr]' and it is trimmed from '32' to '5' bits. [/u/joc92375/DUT/axi4lite_multi_slaves/embedded_test.srcs/sources_1/new/axi4lite_slave_logic.vhd:85]
WARNING: [Synth 8-3936] Found unconnected internal register 'reg_block_inst_0/axi4lite_slave_logic_inst/ipb_mosi_int_reg[addr]' and it is trimmed from '32' to '5' bits. [/u/joc92375/DUT/axi4lite_multi_slaves/embedded_test.srcs/sources_1/new/axi4lite_slave_logic.vhd:85]
WARNING: [Synth 8-3331] design axi4lite_multi_slave_top has unconnected port axi4lite_mosi[awaddr][31]
WARNING: [Synth 8-3331] design axi4lite_multi_slave_top has unconnected port axi4lite_mosi[awaddr][30]
WARNING: [Synth 8-3331] design axi4lite_multi_slave_top has unconnected port axi4lite_mosi[awaddr][29]
WARNING: [Synth 8-3331] design axi4lite_multi_slave_top has unconnected port axi4lite_mosi[awaddr][28]
WARNING: [Synth 8-3331] design axi4lite_multi_slave_top has unconnected port axi4lite_mosi[awaddr][27]
WARNING: [Synth 8-3331] design axi4lite_multi_slave_top has unconnected port axi4lite_mosi[awaddr][26]
WARNING: [Synth 8-3331] design axi4lite_multi_slave_top has unconnected port axi4lite_mosi[awaddr][25]
WARNING: [Synth 8-3331] design axi4lite_multi_slave_top has unconnected port axi4lite_mosi[awaddr][24]
WARNING: [Synth 8-3331] design axi4lite_multi_slave_top has unconnected port axi4lite_mosi[awaddr][23]
WARNING: [Synth 8-3331] design axi4lite_multi_slave_top has unconnected port axi4lite_mosi[awaddr][22]
WARNING: [Synth 8-3331] design axi4lite_multi_slave_top has unconnected port axi4lite_mosi[awaddr][21]
WARNING: [Synth 8-3331] design axi4lite_multi_slave_top has unconnected port axi4lite_mosi[awaddr][20]
WARNING: [Synth 8-3331] design axi4lite_multi_slave_top has unconnected port axi4lite_mosi[awaddr][19]
WARNING: [Synth 8-3331] design axi4lite_multi_slave_top has unconnected port axi4lite_mosi[awaddr][18]
WARNING: [Synth 8-3331] design axi4lite_multi_slave_top has unconnected port axi4lite_mosi[awaddr][17]
WARNING: [Synth 8-3331] design axi4lite_multi_slave_top has unconnected port axi4lite_mosi[awaddr][16]
WARNING: [Synth 8-3331] design axi4lite_multi_slave_top has unconnected port axi4lite_mosi[awaddr][15]
WARNING: [Synth 8-3331] design axi4lite_multi_slave_top has unconnected port axi4lite_mosi[awaddr][14]
WARNING: [Synth 8-3331] design axi4lite_multi_slave_top has unconnected port axi4lite_mosi[awaddr][13]
WARNING: [Synth 8-3331] design axi4lite_multi_slave_top has unconnected port axi4lite_mosi[awaddr][12]
WARNING: [Synth 8-3331] design axi4lite_multi_slave_top has unconnected port axi4lite_mosi[awaddr][11]
WARNING: [Synth 8-3331] design axi4lite_multi_slave_top has unconnected port axi4lite_mosi[awaddr][10]
WARNING: [Synth 8-3331] design axi4lite_multi_slave_top has unconnected port axi4lite_mosi[awaddr][9]
WARNING: [Synth 8-3331] design axi4lite_multi_slave_top has unconnected port axi4lite_mosi[awaddr][8]
WARNING: [Synth 8-3331] design axi4lite_multi_slave_top has unconnected port axi4lite_mosi[awaddr][7]
WARNING: [Synth 8-3331] design axi4lite_multi_slave_top has unconnected port axi4lite_mosi[araddr][31]
WARNING: [Synth 8-3331] design axi4lite_multi_slave_top has unconnected port axi4lite_mosi[araddr][30]
WARNING: [Synth 8-3331] design axi4lite_multi_slave_top has unconnected port axi4lite_mosi[araddr][29]
WARNING: [Synth 8-3331] design axi4lite_multi_slave_top has unconnected port axi4lite_mosi[araddr][28]
WARNING: [Synth 8-3331] design axi4lite_multi_slave_top has unconnected port axi4lite_mosi[araddr][27]
WARNING: [Synth 8-3331] design axi4lite_multi_slave_top has unconnected port axi4lite_mosi[araddr][26]
WARNING: [Synth 8-3331] design axi4lite_multi_slave_top has unconnected port axi4lite_mosi[araddr][25]
WARNING: [Synth 8-3331] design axi4lite_multi_slave_top has unconnected port axi4lite_mosi[araddr][24]
WARNING: [Synth 8-3331] design axi4lite_multi_slave_top has unconnected port axi4lite_mosi[araddr][23]
WARNING: [Synth 8-3331] design axi4lite_multi_slave_top has unconnected port axi4lite_mosi[araddr][22]
WARNING: [Synth 8-3331] design axi4lite_multi_slave_top has unconnected port axi4lite_mosi[araddr][21]
WARNING: [Synth 8-3331] design axi4lite_multi_slave_top has unconnected port axi4lite_mosi[araddr][20]
WARNING: [Synth 8-3331] design axi4lite_multi_slave_top has unconnected port axi4lite_mosi[araddr][19]
WARNING: [Synth 8-3331] design axi4lite_multi_slave_top has unconnected port axi4lite_mosi[araddr][18]
WARNING: [Synth 8-3331] design axi4lite_multi_slave_top has unconnected port axi4lite_mosi[araddr][17]
WARNING: [Synth 8-3331] design axi4lite_multi_slave_top has unconnected port axi4lite_mosi[araddr][16]
WARNING: [Synth 8-3331] design axi4lite_multi_slave_top has unconnected port axi4lite_mosi[araddr][15]
WARNING: [Synth 8-3331] design axi4lite_multi_slave_top has unconnected port axi4lite_mosi[araddr][14]
WARNING: [Synth 8-3331] design axi4lite_multi_slave_top has unconnected port axi4lite_mosi[araddr][13]
WARNING: [Synth 8-3331] design axi4lite_multi_slave_top has unconnected port axi4lite_mosi[araddr][12]
WARNING: [Synth 8-3331] design axi4lite_multi_slave_top has unconnected port axi4lite_mosi[araddr][11]
WARNING: [Synth 8-3331] design axi4lite_multi_slave_top has unconnected port axi4lite_mosi[araddr][10]
WARNING: [Synth 8-3331] design axi4lite_multi_slave_top has unconnected port axi4lite_mosi[araddr][9]
WARNING: [Synth 8-3331] design axi4lite_multi_slave_top has unconnected port axi4lite_mosi[araddr][8]
WARNING: [Synth 8-3331] design axi4lite_multi_slave_top has unconnected port axi4lite_mosi[araddr][7]
WARNING: [Synth 8-3332] Sequential element (reg_block_inst_0/axi4lite_slave_logic_inst/ipb_mosi_int_reg[addr][1]) is unused and will be removed from module axi4lite_multi_slave_top.
WARNING: [Synth 8-3332] Sequential element (reg_block_inst_0/axi4lite_slave_logic_inst/ipb_mosi_int_reg[addr][0]) is unused and will be removed from module axi4lite_multi_slave_top.
WARNING: [Synth 8-3332] Sequential element (reg_block_inst_1/axi4lite_slave_logic_inst/ipb_mosi_int_reg[addr][1]) is unused and will be removed from module axi4lite_multi_slave_top.
WARNING: [Synth 8-3332] Sequential element (reg_block_inst_1/axi4lite_slave_logic_inst/ipb_mosi_int_reg[addr][0]) is unused and will be removed from module axi4lite_multi_slave_top.
---------------------------------------------------------------------------------
Finished Cross Boundary and Area Optimization : Time (s): cpu = 00:00:17 ; elapsed = 00:00:19 . Memory (MB): peak = 1766.414 ; gain = 761.285 ; free physical = 35581 ; free virtual = 103231
---------------------------------------------------------------------------------

Report RTL Partitions: 
+-+--------------+------------+----------+
| |RTL Partition |Replication |Instances |
+-+--------------+------------+----------+
+-+--------------+------------+----------+
---------------------------------------------------------------------------------
Start Timing Optimization
---------------------------------------------------------------------------------
---------------------------------------------------------------------------------
Start Applying XDC Timing Constraints
---------------------------------------------------------------------------------
---------------------------------------------------------------------------------
Finished Applying XDC Timing Constraints : Time (s): cpu = 00:00:24 ; elapsed = 00:00:27 . Memory (MB): peak = 1925.492 ; gain = 920.363 ; free physical = 35328 ; free virtual = 102978
---------------------------------------------------------------------------------
---------------------------------------------------------------------------------
Finished Timing Optimization : Time (s): cpu = 00:00:24 ; elapsed = 00:00:27 . Memory (MB): peak = 1925.492 ; gain = 920.363 ; free physical = 35328 ; free virtual = 102978
---------------------------------------------------------------------------------

Report RTL Partitions: 
+-+--------------+------------+----------+
| |RTL Partition |Replication |Instances |
+-+--------------+------------+----------+
+-+--------------+------------+----------+
---------------------------------------------------------------------------------
Start Technology Mapping
---------------------------------------------------------------------------------
---------------------------------------------------------------------------------
Finished Technology Mapping : Time (s): cpu = 00:00:24 ; elapsed = 00:00:27 . Memory (MB): peak = 1953.523 ; gain = 948.395 ; free physical = 35301 ; free virtual = 102951
---------------------------------------------------------------------------------

Report RTL Partitions: 
+-+--------------+------------+----------+
| |RTL Partition |Replication |Instances |
+-+--------------+------------+----------+
+-+--------------+------------+----------+
---------------------------------------------------------------------------------
Start IO Insertion
---------------------------------------------------------------------------------
---------------------------------------------------------------------------------
Start Flattening Before IO Insertion
---------------------------------------------------------------------------------
---------------------------------------------------------------------------------
Finished Flattening Before IO Insertion
---------------------------------------------------------------------------------
---------------------------------------------------------------------------------
Start Final Netlist Cleanup
---------------------------------------------------------------------------------
---------------------------------------------------------------------------------
Finished Final Netlist Cleanup
---------------------------------------------------------------------------------
---------------------------------------------------------------------------------
Finished IO Insertion : Time (s): cpu = 00:00:24 ; elapsed = 00:00:27 . Memory (MB): peak = 1953.527 ; gain = 948.398 ; free physical = 35301 ; free virtual = 102951
---------------------------------------------------------------------------------

Report Check Netlist: 
+------+------------------+-------+---------+-------+------------------+
|      |Item              |Errors |Warnings |Status |Description       |
+------+------------------+-------+---------+-------+------------------+
|1     |multi_driven_nets |      0|        0|Passed |Multi driven nets |
+------+------------------+-------+---------+-------+------------------+
---------------------------------------------------------------------------------
Start Renaming Generated Instances
---------------------------------------------------------------------------------
---------------------------------------------------------------------------------
Finished Renaming Generated Instances : Time (s): cpu = 00:00:24 ; elapsed = 00:00:27 . Memory (MB): peak = 1953.527 ; gain = 948.398 ; free physical = 35301 ; free virtual = 102951
---------------------------------------------------------------------------------

Report RTL Partitions: 
+-+--------------+------------+----------+
| |RTL Partition |Replication |Instances |
+-+--------------+------------+----------+
+-+--------------+------------+----------+
---------------------------------------------------------------------------------
Start Rebuilding User Hierarchy
---------------------------------------------------------------------------------
---------------------------------------------------------------------------------
Finished Rebuilding User Hierarchy : Time (s): cpu = 00:00:24 ; elapsed = 00:00:27 . Memory (MB): peak = 1953.527 ; gain = 948.398 ; free physical = 35301 ; free virtual = 102951
---------------------------------------------------------------------------------
---------------------------------------------------------------------------------
Start Renaming Generated Ports
---------------------------------------------------------------------------------
---------------------------------------------------------------------------------
Finished Renaming Generated Ports : Time (s): cpu = 00:00:24 ; elapsed = 00:00:27 . Memory (MB): peak = 1953.527 ; gain = 948.398 ; free physical = 35301 ; free virtual = 102951
---------------------------------------------------------------------------------
---------------------------------------------------------------------------------
Start Handling Custom Attributes
---------------------------------------------------------------------------------
---------------------------------------------------------------------------------
Finished Handling Custom Attributes : Time (s): cpu = 00:00:24 ; elapsed = 00:00:28 . Memory (MB): peak = 1953.527 ; gain = 948.398 ; free physical = 35301 ; free virtual = 102951
---------------------------------------------------------------------------------
---------------------------------------------------------------------------------
Start Renaming Generated Nets
---------------------------------------------------------------------------------
---------------------------------------------------------------------------------
Finished Renaming Generated Nets : Time (s): cpu = 00:00:24 ; elapsed = 00:00:28 . Memory (MB): peak = 1953.527 ; gain = 948.398 ; free physical = 35301 ; free virtual = 102951
---------------------------------------------------------------------------------
---------------------------------------------------------------------------------
Start Writing Synthesis Report
---------------------------------------------------------------------------------

Report BlackBoxes: 
+-+--------------+----------+
| |BlackBox name |Instances |
+-+--------------+----------+
+-+--------------+----------+

Report Cell Usage: 
+------+-----+------+
|      |Cell |Count |
+------+-----+------+
|1     |BUFG |     1|
|2     |LUT1 |     4|
|3     |LUT2 |     5|
|4     |LUT3 |     8|
|5     |LUT4 |    51|
|6     |LUT5 |    74|
|7     |LUT6 |   144|
|8     |FDCE |   340|
|9     |FDRE |     6|
|10    |IBUF |    47|
|11    |OBUF |    41|
+------+-----+------+

Report Instance Areas: 
+------+-------------------------------+-------------------------------+------+
|      |Instance                       |Module                         |Cells |
+------+-------------------------------+-------------------------------+------+
|1     |top                            |                               |   721|
|2     |  axi4lite_multi_slave_ic_inst |axi4lite_multi_slave_ic        |    56|
|3     |  reg_block_inst_0             |axi4lite_multi_slave_reg_bank0 |   289|
|4     |    axi4lite_slave_logic_inst  |axi4lite_slave_logic_0         |   161|
|5     |  reg_block_inst_1             |axi4lite_multi_slave_reg_bank1 |   287|
|6     |    axi4lite_slave_logic_inst  |axi4lite_slave_logic           |   159|
+------+-------------------------------+-------------------------------+------+
---------------------------------------------------------------------------------
Finished Writing Synthesis Report : Time (s): cpu = 00:00:24 ; elapsed = 00:00:28 . Memory (MB): peak = 1953.527 ; gain = 948.398 ; free physical = 35301 ; free virtual = 102951
---------------------------------------------------------------------------------
Synthesis finished with 0 errors, 0 critical warnings and 56 warnings.
Synthesis Optimization Runtime : Time (s): cpu = 00:00:15 ; elapsed = 00:00:16 . Memory (MB): peak = 1953.527 ; gain = 302.590 ; free physical = 35301 ; free virtual = 102951
Synthesis Optimization Complete : Time (s): cpu = 00:00:24 ; elapsed = 00:00:28 . Memory (MB): peak = 1953.531 ; gain = 948.402 ; free physical = 35301 ; free virtual = 102951
INFO: [Project 1-571] Translating synthesized netlist
INFO: [Netlist 29-17] Analyzing 48 Unisim elements for replacement
INFO: [Netlist 29-28] Unisim Transformation completed in 0 CPU seconds
INFO: [Project 1-570] Preparing netlist for logic optimization
INFO: [Opt 31-138] Pushed 0 inverter(s) to 0 load pin(s).
INFO: [Project 1-111] Unisim Transformation Summary:
  A total of 48 instances were transformed.
  BUFG => BUFGCE: 1 instances
  IBUF => IBUF (IBUFCTRL, INBUF): 47 instances

INFO: [Common 17-83] Releasing license: Synthesis
45 Infos, 68 Warnings, 0 Critical Warnings and 0 Errors encountered.
synth_design completed successfully
synth_design: Time (s): cpu = 00:00:21 ; elapsed = 00:00:23 . Memory (MB): peak = 1988.547 ; gain = 894.695 ; free physical = 35298 ; free virtual = 102948
INFO: [Common 17-1381] The checkpoint '/u/joc92375/DUT/axi4lite_multi_slaves/embedded_test.runs/synth_1/axi4lite_multi_slave_top.dcp' has been generated.
report_utilization: Time (s): cpu = 00:00:00.07 ; elapsed = 00:00:00.18 . Memory (MB): peak = 2012.559 ; gain = 0.000 ; free physical = 35297 ; free virtual = 102947
INFO: [Common 17-206] Exiting Vivado at Tue Aug  7 15:48:35 2018...
